server : 10.10.10.21
user:sigisystems
pass:!!s1g1!!
dir: /var/www/sigisystem.com/web/dist/iris

server : 192.168.10.54
user: root
pass: !!centos!!

server: 182.253.202.165
user: root | sigisystems
pass: !!sigi!!

server : 10.2.198.197
user : root
pass : iris@123

server : 10.1.179.108
user: root
pass: !!centos!!